709646 371019 509
464728 708869 509
163597 614236 470
299765 827382 509
917424 829095 525
583948 695178 509
724712 76965 509
999264 487480 525
96052 248110 443
623646 72691 470
212929 654389 509
624361 749484 509
908085 578379 525
357530 838725 525
19797 977742 525
867663 182370 525
964633 963627 383
224393 515336 470
263821 513379 470
869369 48567 525
844743 388712 525
516741 609410 452
574779 947334 525
969959 944762 414
511165 853951 525
750210 62471 509
193236 945262 525
542135 849784 525
944780 349042 525
821321 810603 450
666292 770967 504
116682 785951 509
517546 516966 333
414731 446493 418
202988 592048 470
628683 13726 509
851148 908608 445
817571 872026 525
985562 861550 507
102502 77446 341
452660 263905 449
468312 393466 449
839539 954537 507
720763 733871 411
927071 947624 507
821237 451987 509
555291 644955 509
885787 872302 432
972794 770904 525
432948 867948 525
193459 870093 525
63396 27195 340
607461 881318 525
771664 11547 509
883781 964843 507
978469 118091 525
215380 331884 443
251488 815851 509
549986 100259 470
808992 525598 509
483489 266510 449
196492 839200 525
858883 448636 525
250556 950058 525
194173 290184 443
596086 450620 470
594028 754065 509
64449 960692 525
791351 912469 525
271516 707105 509
97953 832175 509
448506 260174 449
363112 210415 443
234337 386039 441
374436 232986 441
767503 446670 509
913665 276295 525
785189 220518 509
680354 234579 509
591695 351722 470
914541 394767 525
694410 25884 509
359456 292077 441
525654 385603 470
535786 511502 470
540588 351657 470
672453 453525 509
579073 630598 509
700409 449554 509
126649 883126 525
68094 957459 525
915295 202951 525
681805 593738 509
719102 800184 468
959754 357998 525
518373 75530 470
168159 900205 525
246030 905926 525
964936 499724 525
701352 449171 509
352968 110248 443
501386 905975 525
292401 461533 449
764337 696558 504
275846 285311 389
346532 146124 443
279162 689708 509
154499 465488 449
370762 116512 443
522932 492036 470
865855 242083 525
159671 746612 509
947786 662609 525
597710 809347 509
612625 514013 452
310103 281343 389
105301 893882 525
777073 922718 525
689559 846452 525
280069 269072 407
90939 717631 509
916104 913665 370
435945 297275 449
466325 917517 525
733836 345037 509
279133 371558 441
554711 885628 525
126045 58672 354
395525 136666 443
603596 15066 470
197875 775276 509
285082 90602 443
206949 265443 443
273772 655595 509
755791 630179 504
27041 389514 443
415177 212792 449
31981 490792 449
330789 426290 449
254916 548032 470
613449 325857 470
534729 906252 525
29655 393440 443
982070 772893 525
202075 113463 383
817907 852276 525
60379 417510 449
762137 796097 468
188487 260470 443
92293 786291 509
852971 220009 525
473512 45929 449
371239 212445 443
240258 580718 470
881180 436103 525
382947 845696 525
177194 453562 449
766717 506879 509
608588 474928 470
252978 992730 525
905805 490352 525
310376 625585 470
751105 885804 525
894478 804812 525
249234 954762 525
60873 550413 470
983043 505244 525
548425 797395 509
965118 795041 525
106856 520365 470
465673 948242 525
310581 219013 443
679290 343009 509
338259 857931 525
715118 813527 468
139870 235796 443
146114 507073 449
323863 563894 470
688319 50617 509
616484 591812 447
491361 611448 470
149461 729424 509
527746 234143 470
563132 517372 452
896166 479454 525
347875 805254 509
865972 708941 525
586024 917282 525
92370 522262 470
835058 473070 509
49065 57761 340
122004 607711 470
207567 760747 509
221558 402745 443
314251 424028 449
668600 835321 504
17983 760450 509
841441 852532 419
496155 633316 509
752365 655308 504
116621 371462 443
695956 736994 504
297762 895665 525
963180 852589 507
758861 768501 468
868646 898302 445
885656 313152 525
687848 17255 509
985571 101366 525
939977 70056 525
965078 92573 525
185901 318832 443
926314 99145 525
29771 565408 470
849996 676090 525
177568 782895 509
826167 659492 504
737253 236500 509
606473 446775 470
697461 933426 525
882877 341146 525
548428 361094 470
353183 14823 443
636103 795480 504
843546 181027 525
950478 967104 414
894737 945662 507
653889 521676 509
616357 673954 509
332968 965454 525
947141 296858 525
426294 57621 449
20047 501871 449
445878 866323 525
472453 994562 525
402013 848155 525
854529 965897 507
925838 85005 525
414081 611478 470
559330 798558 509
453902 199895 449
623232 127453 470
511315 95713 449
307323 841788 525
820148 959222 525
654588 812246 504
752620 776554 468
263927 787314 509
782961 242340 509
344129 866467 525
